<?xml version="1.0" encoding="utf-8"?>
<!-- Generator: Adobe Illustrator 24.0.1, SVG Export Plug-In . SVG Version: 6.00 Build 0)  -->
<svg version="1.1" xmlns="http://www.w3.org/2000/svg" xmlns:xlink="http://www.w3.org/1999/xlink" x="0px" y="0px"
	 viewBox="0 0 1920 1920" style="enable-background:new 0 0 1920 1920;" xml:space="preserve">
<style type="text/css">
	.st0{fill:#E0E0E0;}
	.st1{fill:#965C35;}
	.st2{fill:#AA7050;}
	.st3{fill:#382727;}
	.st4{fill:#4C3434;}
	.st5{fill:#3A3E41;}
	.st6{fill:#303336;}
	.st7{fill:#FF7733;}
	.st8{fill:#E5652E;}
	.st9{fill:#FF7733;stroke:#303336;stroke-width:12;stroke-miterlimit:10;}
	.st10{display:none;fill:#3A3E41;}
	.st11{fill:#F9DAC3;}
	.st12{fill:#FF7733;stroke:#000000;stroke-width:12;stroke-miterlimit:10;}
	.st13{fill:#EDEDED;stroke:#DDDDDD;stroke-width:15;stroke-miterlimit:10;}
	.st14{fill:#C6865C;}
	.st15{fill:#B16E3D;}
	.st16{fill:#664545;}
	.st17{fill:#523838;}
	.st18{fill:none;stroke:#DC0000;stroke-width:38;stroke-miterlimit:10;}
	.st19{fill:#8E9391;}
	.st20{fill:#636D6A;}
	.st21{opacity:0.66;}
	.st22{fill:#999999;}
	.st23{fill:#E6E6E6;}
	.st24{fill:#FCFCFC;stroke:#D1D1D1;stroke-width:35;stroke-miterlimit:10;}
	.st25{fill:#069E2D;}
	.st26{fill:#FFC914;}
	.st27{fill:#F34213;}
	.st28{fill:#FCFCFC;}
	.st29{fill:#6EA3F3;}
	.st30{fill:#99BDF9;}
	.st31{fill:#CBD0E4;}
	.st32{fill:#F2F2F2;stroke:#CCCCCC;stroke-width:35;stroke-miterlimit:10;}
	.st33{filter:url(#Adobe_OpacityMaskFilter);}
	.st34{opacity:0.3;mask:url(#SVGID_1_);}
	.st35{fill:#FFFFFF;}
	.st36{display:none;fill:#E5652E;}
	.st37{display:none;}
	.st38{display:inline;fill:#303336;}
	.st39{display:inline;fill:#F34213;}
	.st40{display:inline;fill:#E7E7E7;}
	.st41{display:inline;fill:#FFC914;}
	.st42{fill:#00A6FB;}
	.st43{display:inline;fill:#00A6FB;}
	.st44{display:inline;}
	.st45{fill:#E7E7E7;}
	.st46{display:inline;fill:#069E2D;}
	.st47{fill:none;}
	.st48{fill:#C6865C;stroke:#B16E3D;stroke-width:20;stroke-miterlimit:10;}
	.st49{fill:#664545;stroke:#523838;stroke-width:5;stroke-miterlimit:10;}
</style>
<g id="_x31_1_NINJA_COOKIE_AIR_KICK">
</g>
<g id="_x31_0_NINJA_COOKIE_ZEN">
</g>
<g id="_x39__NINJA_COOKIE_SQUATTING">
</g>
<g id="_x38__NINJA_COOKIE_WITH_FLAG">
</g>
<g id="_x37__NINJA_COOKIE_BRAND_NAME">
</g>
<g id="_x36__NINJA_HIGH_KICK">
</g>
<g id="_x35__NINJA_COOKIE_KICK">
</g>
<g id="_x34__NINJA_NOTIF">
	<g id="GROUP_NINJA_NOTIF">
		<g id="GROUP_HEAD_4_">
			<path id="laniere_inferieure_6_" class="st36" d="M36.3,1384c203.6-240.1,291.2-142.9,464.6-429.5
				c50.6,54.1,101.2,108.2,151.8,162.3c-179.6,292-290.3,210.2-464.6,429.5c7-56.9,13.9-113.8,20.9-170.6
				C151.4,1378.4,93.9,1381.2,36.3,1384z"/>
			<path id="laniere_superieure_6_" class="st36" d="M-69,1059.8c279.4-146.2,323.8-23.4,592.8-224c26.3,69.1,52.6,138.2,78.9,207.4
				C325.4,1246.7,255,1129,9.9,1267.1c28-50.1,56-100.2,84.1-150.3C39.7,1097.8-14.6,1078.8-69,1059.8z"/>
			<path id="Tete_6_" class="st5" d="M1593.1,410.2c-82.9,33.7-174.1,15.2-237-39.9c-20.3,17.2-43.6,31.6-69.6,42.2
				c-131,53.2-280.6-9.2-334.1-139.4c-7.2-17.6-12.3-35.5-15.4-53.4c-80.7-8.5-154.2-59.6-187-139.5C739.2,53.9,733.8,26.8,733.1,0
				C256.3,121.6-38.7,599.7,72,1079.4c112.5,487.4,601.2,791.9,1091.7,680.1s796.8-597.6,684.3-1085
				c-29.3-126.9-84.1-241.4-157.8-339.3C1666.2,367.5,1633.3,393.9,1593.1,410.2z"/>
			<g id="ombre_4_" class="st37">
				<path id="ombre_tete_4_" class="st38" d="M195.2,1079.4C94,640.9,331.8,203.9,737.5,39.1c-2.6-13-4.1-26.1-4.4-39.1
					C256.3,121.6-38.7,599.7,72,1079.4c101.5,440,509.7,730.9,948.9,701.1C630.6,1754,287.1,1477.8,195.2,1079.4z"/>
				<path id="ombre_coté_gauche_1_" class="st38" d="M710.8,80.2c32.8,79.9,106.3,131,187,139.5c3.1,18,8.1,35.8,15.4,53.4
					c43.2,105,148.8,165.9,256.8,157.6c-93.6-7.2-179.8-65.4-217.7-157.6c-7.2-17.6-12.3-35.5-15.4-53.4
					c-80.7-8.5-154.2-59.6-187-139.5C739.2,53.9,733.8,26.8,733.1,0c-13,3.3-25.9,6.9-38.6,10.8C696.2,34,701.5,57.4,710.8,80.2z"/>
				<path id="ombre_coté_droit_1_" class="st38" d="M1487.5,426.2c-48.6-4.2-94.8-23.8-131.4-55.9c-6.3,5.4-12.9,10.4-19.8,15.2
					C1379.8,415.9,1433.4,430.9,1487.5,426.2z"/>
			</g>
			<path id="ouverture_6_" class="st11" d="M1693.1,1057.6C1683,863.5,1571.2,700.1,1359,724.5c-298.8,2.1-607.8-4.2-898.8,2.3
				c-286.2,51-320.5,576.7-36.8,687.2c43,17.1,102.3,11.9,163.9,3.3c117.8-16.7,171.9-53.7,254.7-86.4
				c155.4-55.6,242.5,3.2,348.3,47.6c52.3,22.9,145.3,45.7,239.1,47.1v0c0.2,0,0.2,0,1.1,0v0
				C1609.8,1419.8,1701,1218.4,1693.1,1057.6z"/>
			<path id="oeil_droit_6_" class="st5" d="M523.9,1131.6H485c-5,0-9-4-9-9v-95.2c0-5,4-9,9-9h38.9c5,0,9,4,9,9v95.2
				C532.9,1127.6,528.9,1131.6,523.9,1131.6z"/>
			<path id="oeil_gauche_6_" class="st5" d="M1435,1131.6h-38.9c-5,0-9-4-9-9v-95.2c0-5,4-9,9-9h38.9c5,0,9,4,9,9v95.2
				C1444,1127.6,1440,1131.6,1435,1131.6z"/>
			<path id="bandeau_6_" class="st7" d="M63.3,820.3h1793.5c38.4,0,67.7-33.7,62.7-71.5c-12.2-90.8-37-177.5-72.8-258.4
				c-10.1-23-32.8-37.9-58.1-37.9H131.4c-22.9,0-48.9,17.1-58.1,37.9C37.6,571.3,12.7,658.1,0.6,748.8
				C-4.5,786.7,24.9,820.3,63.3,820.3z"/>
			<path id="ombre_bandeau_5_" class="st36" d="M160.4,748.8c12.2-90.8,37-177.5,72.8-258.4c9.2-20.8,35.2-37.9,58.1-37.9H131.4
				c-22.9,0-48.9,17.1-58.1,37.9C37.6,571.3,12.7,658.1,0.6,748.8c-5.1,37.8,24.3,71.5,62.7,71.5h159.8
				C184.7,820.3,155.4,786.7,160.4,748.8z"/>
		</g>
		<g id="GROUP_NOTIF">
			<g id="ERROR_1_" class="st37">
				<path id="carré" class="st27" d="M1627.5,1920h-515c-71.8,0-130-58.2-130-130v-515c0-71.8,58.2-130,130-130h515
					c71.8,0,130,58.2,130,130v515C1757.5,1861.8,1699.3,1920,1627.5,1920z"/>
				<path id="rectangle" class="st39" d="M1790,1920H950c-71.8,0-130-58.2-130-130v-515c0-71.8,58.2-130,130-130h840
					c71.8,0,130,58.2,130,130v515C1920,1861.8,1861.8,1920,1790,1920z"/>
				<polygon class="st40" points="1269.5,1533.3 1069.2,1733.5 1169,1833.3 1369.2,1633 1569.5,1833.3 1669.2,1733.5 1469,1533.3
					1669.2,1333 1569.5,1233.3 1369.2,1433.5 1169,1233.3 1069.2,1333 				"/>
			</g>
			<g id="WARNING_1_" class="st37">
				<path id="carré_2_" class="st26" d="M1627.5,1920h-515c-71.8,0-130-58.2-130-130v-515c0-71.8,58.2-130,130-130h515
					c71.8,0,130,58.2,130,130v515C1757.5,1861.8,1699.3,1920,1627.5,1920z"/>
				<path id="rectangle_1_" class="st41" d="M1790,1920H950c-71.8,0-130-58.2-130-130v-515c0-71.8,58.2-130,130-130h840
					c71.8,0,130,58.2,130,130v515C1920,1861.8,1861.8,1920,1790,1920z"/>
				<rect x="1299.6" y="1240.8" class="st40" width="149.5" height="150"/>
				<rect x="1299.6" y="1486" class="st40" width="149.5" height="354.8"/>
			</g>
			<g id="LOADING" class="st37">
				<path id="carré_1_" class="st42" d="M1627.5,1920h-515c-71.8,0-130-58.2-130-130v-515c0-71.8,58.2-130,130-130h515
					c71.8,0,130,58.2,130,130v515C1757.5,1861.8,1699.3,1920,1627.5,1920z"/>
				<path id="rectangle_2_" class="st43" d="M1790,1920H950c-71.8,0-130-58.2-130-130v-515c0-71.8,58.2-130,130-130h840
					c71.8,0,130,58.2,130,130v515C1920,1861.8,1861.8,1920,1790,1920z"/>
				<g class="st44">
					<g>
						<path class="st45" d="M1488.1,1418.9c60,63,59.8,163.2-0.3,226.1c-21.8,22.8-48.6,37.9-77,45.3l-28.1,104.7
							c61.7-3.1,122.5-27.8,170.1-74.1c105.6-102.5,106-274.6,0.9-377.6c-33.6-32.9-73.8-55-116.2-66.3l-25.8,96.4
							C1439.8,1380.9,1466.4,1396.1,1488.1,1418.9z"/>
						<path class="st45" d="M1326.8,1690.1c-28.2-7.5-54.7-22.7-76.4-45.5c-60-63-59.8-163.2,0.3-226.1c21.8-22.8,48.6-37.9,77-45.3
							l28.1-104.7c-61.7,3.1-122.5,27.8-170.1,74.1c-105.6,102.5-106,274.6-0.9,377.6c33.6,32.9,73.8,55,116.2,66.3L1326.8,1690.1z"
							/>
					</g>
					<polygon class="st45" points="1371.6,1831.7 1634.4,1761.3 1442,1568.8 					"/>
					<polygon class="st45" points="1366.9,1231.7 1296.5,1494.6 1104,1302.2 					"/>
				</g>
			</g>
			<g id="CHECK_1_" class="st37">
				<path id="carré_3_" class="st25" d="M1627.5,1920h-515c-71.8,0-130-58.2-130-130v-515c0-71.8,58.2-130,130-130h515
					c71.8,0,130,58.2,130,130v515C1757.5,1861.8,1699.3,1920,1627.5,1920z"/>
				<path id="rectangle_3_" class="st46" d="M1790,1920H950c-71.8,0-130-58.2-130-130v-515c0-71.8,58.2-130,130-130h840
					c71.8,0,130,58.2,130,130v515C1920,1861.8,1861.8,1920,1790,1920z"/>
				<polygon id="ECK_1_" class="st40" points="1692,1387.2 1307.9,1771.2 1032,1496 1125.1,1402.9 1307.9,1586.4 1373.5,1520.9
					1599.6,1294.8 				"/>
			</g>
		</g>
	</g>
</g>
<g id="_x33__NINJA_RUNNING">
</g>
<g id="_x32__COLOR_PALETTE">
</g>
<g id="_x31__NINJA_STANDING">
</g>
<g id="Calque_12">
</g>
</svg>
